{
  "pageTitle" : "Starkey Hearing Foundation",
  "mainNav" : {
    "items" : [
      {
        "text" : "Home",
        "link" : {
          "href" : "/home",
          "target" : "_self"
        }
      },
      {
        "text" : "Our Work",
        "link" : {
          "href" : "/our-work",
          "target" : "_self"
        }
      },
      {
        "text" : "About",
        "link" : {
          "href" : "/about",
          "target" : "_self"
        }
      }
    ]
  },
  "homepageTabs" : {
    "type" : "tab-accordion",
    "items" : [
      {
        "title" : "Title 1",
        "content" : "1 This is a content block."
      },
      {
        "title" : "Title 2",
        "content" : "2 This is a content block."
      },
      {
        "title" : "Title 3",
        "content" : "3 This is a content block."
      }
    ]
  }
}
